RMarkdown Presentation
…
---
class: inverse1 center middle 

## Matching Plot Background Color

<img src="Presentation_files/figure-html/unnamed-chunk-2-1.png" width="600px" style="display: block; margin: auto;" />

---
class: inverse1 center middle 
exclude: false

# Text Format Data Table

```
# A tibble: 3,593 × 11
   Carrier Airport_Distance Number_of_flights Weather Support_Crew_Available
   <chr>              <int>             <int>   <int>                  <int>
 1 UA                   437             41300       5                     83
 2 UA                   451             41516       5                     82
 3 AA                   425             37404       5                    175
 4 B6                   454             44798       6                     49
 5 DL                   455             40643       6                     55
 6 UA                   416             39707       5                    146
 7 B6                   439             45627       5                    141
 8 EV                   446             40415       5                    145
 9 B6                   441             42248       6                     58
10 AA                   456             43453       6                      3
# ℹ 3,583 more rows
# ℹ 6 more variables: Baggage_loading_time <int>, Late_Arrival_o <int>,
#   Cleaning_o <int>, Fueling_o <int>, Security_o <int>, Arr_Delay <int>
```
…
